<?xml version="1.0" encoding="utf-8"?>
<!-- Generator: Adobe Illustrator 21.0.0, SVG Export Plug-In . SVG Version: 6.00 Build 0)  -->
<svg version="1.1" id="Layer_1" xmlns="http://www.w3.org/2000/svg" xmlns:xlink="http://www.w3.org/1999/xlink" x="0px" y="0px"
	 viewBox="0 0 200 100" style="enable-background:new 0 0 200 100;" xml:space="preserve">
<style type="text/css">
	.st0{fill:#2B2D2D;}
	.st1{fill:#A1CA3B;}
	.st2{fill:#FFFFFF;}
	.st3{fill:none;}
	.st4{font-family:'Metropolis-Black';}
	.st5{font-size:6.2657px;}
</style>
<path class="st0" d="M173.4,21.3H88.7C81.5,13.4,71.1,8.5,59.5,8.7C38.9,9.2,22.2,26.4,22.3,47c0.1,21,17.1,38,38.1,38
	c11.2,0,21.3-4.8,28.3-12.5h84.7c1.9,0,3.4-1.5,3.4-3.4V24.7C176.9,22.8,175.3,21.3,173.4,21.3z"/>
<path class="st1" d="M60.4,10.8L60.4,10.8c10.1,0,19.9,4.3,26.7,11.8l0.6,0.7h0.9h84.7c0.7,0,1.4,0.6,1.4,1.4V69
	c0,0.7-0.6,1.4-1.4,1.4H88.7h-0.9L87.1,71c-6.8,7.5-16.6,11.8-26.7,11.8c-9.6,0-18.6-3.7-25.4-10.5C28.2,65.6,24.4,56.6,24.4,47
	c-0.1-19.5,15.7-35.7,35.2-36.2C59.9,10.8,60.1,10.8,60.4,10.8 M60.4,8.7c-0.3,0-0.6,0-0.9,0C38.9,9.2,22.2,26.4,22.3,47
	c0.1,21,17.1,38,38.1,38c11.2,0,21.3-4.8,28.3-12.5h84.7c1.9,0,3.4-1.5,3.4-3.4V24.7c0-1.9-1.5-3.4-3.4-3.4H88.7
	C81.7,13.6,71.6,8.7,60.4,8.7L60.4,8.7z"/>
<path class="st1" d="M73.9,40.1h-2.2v-4.8c0-6.3-5.1-11.3-11.3-11.3S49.1,29,49.1,35.2v4.8h-2.2c-1.2,0-2.2,1-2.2,2.2v24.4
	c0,1.2,1,2.2,2.2,2.2h27c1.2,0,2.2-1,2.2-2.2V42.2C76.1,41,75.1,40.1,73.9,40.1z M53.3,35.2c0-4,3.2-7.2,7.2-7.2s7.2,3.2,7.2,7.2
	v4.8H53.3V35.2z M62.2,55.4v4.8c0,0.1-0.1,0.3-0.3,0.3h-3.1c-0.1,0-0.3-0.1-0.3-0.3v-4.8c-0.9-0.6-1.6-1.7-1.6-2.9
	c0-1.9,1.5-3.4,3.4-3.4s3.4,1.5,3.4,3.4C63.8,53.7,63.2,54.8,62.2,55.4z"/>
<path class="st2" d="M90.4,35.1l1.2-1.5c0.8,0.6,1.7,1,2.6,1c0.6,0,0.9-0.2,0.9-0.5c0-0.4-0.3-0.4-1.4-0.7c-1.7-0.4-3-0.8-3-2.5
	c0-1.6,1.2-2.6,3.1-2.6c1.4,0,2.4,0.4,3.3,1.1L96,30.9c-0.7-0.5-1.5-0.8-2.2-0.8c-0.5,0-0.8,0.2-0.8,0.5c0,0.4,0.3,0.5,1.4,0.8
	c1.8,0.4,3,0.9,3,2.4c0,1.7-1.3,2.6-3.2,2.6C92.7,36.4,91.4,36,90.4,35.1z"/>
<path class="st2" d="M101.2,30.4v0.9h3.7v2h-3.7v1h4.1v2H99v-7.8h6.3v2H101.2z"/>
<path class="st2" d="M106.7,32.4c0-2.2,2-4.1,4.3-4.1c1.3,0,2.4,0.5,3.2,1.4l-1.6,1.4c-0.4-0.5-0.9-0.8-1.6-0.8c-1.1,0-2,0.9-2,2
	c0,1.1,0.9,2.1,2,2.1c0.6,0,1.2-0.3,1.6-0.8l1.6,1.4c-0.8,0.9-1.9,1.4-3.2,1.4C108.6,36.4,106.7,34.6,106.7,32.4z"/>
<path class="st2" d="M115.6,32.8v-4.4h2.2v4.2c0,1,0.6,1.7,1.5,1.7s1.5-0.7,1.5-1.7v-4.2h2.2v4.4c0,2.1-1.5,3.6-3.7,3.6
	S115.6,34.9,115.6,32.8z"/>
<path class="st2" d="M129.5,36.3l-1.7-2.4h-0.7v2.4h-2.2v-7.8h3.8c1.8,0,3,1.1,3,2.7c0,1.1-0.6,2-1.6,2.4l1.9,2.7H129.5z
	 M127.1,31.9h1.4c0.5,0,0.9-0.3,0.9-0.7c0-0.4-0.4-0.7-0.9-0.7h-1.4V31.9z"/>
<path class="st2" d="M135.7,30.4v0.9h3.7v2h-3.7v1h4.1v2h-6.3v-7.8h6.3v2H135.7z"/>
<path class="st2" d="M141.5,28.4h2.9c2.7,0,4.7,1.6,4.7,3.9c0,2.3-1.9,3.9-4.7,3.9h-2.9V28.4z M144.8,34.3c1.2,0,2-0.8,2-1.9
	c0-1.1-0.8-1.9-2-1.9h-1.1v3.8H144.8z"/>
<path class="st2" d="M154.5,28.4h4.2c1.5,0,2.5,0.8,2.5,2c0,0.8-0.4,1.4-1.1,1.8c0.9,0.4,1.4,1.1,1.4,2c0,1.3-1.1,2.1-2.7,2.1h-4.4
	V28.4z M158.1,31.5c0.5,0,0.8-0.3,0.8-0.6c0-0.3-0.3-0.6-0.8-0.6h-1.5v1.2H158.1z M158.5,34.4c0.5,0,0.8-0.3,0.8-0.6
	s-0.3-0.6-0.8-0.6h-1.8v1.3H158.5z"/>
<path class="st2" d="M165.4,33.7l-3-5.3h2.5l1.6,3.2l1.7-3.2h2.4l-3,5.3v2.6h-2.2V33.7z"/>
<path class="st2" d="M107.6,62.1l3.5-4.1c2.2,1.8,4.7,2.7,7.3,2.7c1.7,0,2.6-0.6,2.6-1.5c0-1.1-0.8-1.2-3.8-1.9
	c-4.8-1.1-8.4-2.3-8.4-6.9c0-4.4,3.5-7.2,8.7-7.2c3.8,0,6.8,1,9.2,3l-3.1,4.4c-2-1.5-4.3-2.2-6.3-2.2c-1.5,0-2.2,0.6-2.2,1.4
	c0,1.1,0.8,1.5,3.9,2.1c5.1,1.1,8.3,2.5,8.3,6.6c0,4.6-3.5,7.4-9,7.4C114.2,65.8,110.4,64.5,107.6,62.1z"/>
<path class="st2" d="M129.9,62.1l3.5-4.1c2.2,1.8,4.7,2.7,7.3,2.7c1.7,0,2.6-0.6,2.6-1.5c0-1.1-0.8-1.2-3.8-1.9
	c-4.8-1.1-8.4-2.3-8.4-6.9c0-4.4,3.5-7.2,8.7-7.2c3.8,0,6.8,1,9.2,3l-3.1,4.4c-2-1.5-4.3-2.2-6.3-2.2c-1.5,0-2.2,0.6-2.2,1.4
	c0,1.1,0.8,1.5,3.9,2.1c5.1,1.1,8.3,2.5,8.3,6.6c0,4.6-3.5,7.4-9,7.4C136.5,65.8,132.7,64.5,129.9,62.1z"/>
<path class="st2" d="M170.4,59.9v5.5h-16.4v-22h6.2v16.4H170.4z"/>
<path class="st1" d="M105,81.3h58.5c3.2,0,5.7-2.6,5.7-5.7v-4.2h-70v4.2C99.3,78.7,101.8,81.3,105,81.3z"/>
<rect x="107.6" y="74" class="st3" width="68.4" height="15"/>
<text transform="matrix(1 0 0 1 107.5537 78.3398)" class="st0 st4 st5">LET’S ENKRYPT</text>
<g>
	<g>
		<path class="st2" d="M71.4,70.6c-0.1,0-0.1-0.1-0.2-0.1L65,64.1c-0.1-0.1-0.2-0.3-0.2-0.4c0-0.2,0.1-0.3,0.2-0.4s0.3-0.2,0.4-0.2
			c0.2,0,0.3,0.1,0.4,0.2l5.8,5.8L88.8,52c0.1-0.1,0.3-0.2,0.4-0.2c0.2,0,0.3,0.1,0.4,0.2c0.1,0.1,0.2,0.3,0.2,0.4s-0.1,0.3-0.2,0.4
			L72.1,70.4c-0.1,0.1-0.1,0.1-0.2,0.1c-0.1,0-0.2,0-0.2,0C71.6,70.6,71.5,70.6,71.4,70.6z"/>
		<path class="st2" d="M71.7,71.6c-0.2,0-0.4,0-0.6-0.1c-0.2-0.1-0.4-0.2-0.6-0.4l-6.2-6.2c-0.3-0.3-0.5-0.7-0.5-1.2
			c0-0.5,0.2-0.9,0.5-1.2c0.6-0.6,1.7-0.6,2.4,0l5.1,5.1l16.4-16.4c0.6-0.6,1.7-0.6,2.4,0c0.3,0.3,0.5,0.7,0.5,1.2s-0.2,0.9-0.5,1.2
			L72.9,71.1c-0.2,0.2-0.4,0.3-0.6,0.4C72.1,71.6,71.9,71.6,71.7,71.6z"/>
	</g>
</g>
</svg>
